{
  "type": "service_account",
  "project_id": "sep490-g27-spring2024",
  "private_key_id": "ea0799e99ca0409356799e981cf6efe86ece03e5",
  "private_key": "-----BEGIN PRIVATE KEY-----\nMIIEvAIBADANBgkqhkiG9w0BAQEFAASCBKYwggSiAgEAAoIBAQCj2J/Zv271etMe\nvzjm/SHeqcBpaJ05vS1IoUd4pPRwHsj9mLGE9WAzcQBKopymp0slY13WXwiXp4B3\nyDYZhZrQz6ZKe2kj1hMGAOeQ7F6K9KWfKeeSqigl1zigr1zdQ+li7FrGqrIACpqC\nIEoRBH/VD7lCY2NZTQheIy2YhBXOij0bbGc8BGtCtgTMH0kuWgf2Tx2cbAwFDiJ+\nWV7R4ynDrzRioygpCeOftrqcdrkDkfdhm/KGbCVoqQtZgzGvMi41AH9cDtJWl2/b\nQwDVpRq8JoZfoyLube8ZAf03K6is3WRI7FlMeEbAnz72trUt2+OEpxSzWFlvj+B/\n4UTIAkHZAgMBAAECggEAF2LNLMJu/yPDrCulXrblADKLekrKci98c1WYbXG3SqTi\nPEFwnmZ65NdtWrnLZoVnVj6mFKR7hfs2/Mx7XaOHvY595jtSKPbJFVNzZJM69VYb\nqP74BM47rRcDMqWFDuHpbHYJiOSxQ7c/vBtevFS/kt92f7F5ld6cYfoJwS9NK4MD\nXLTCxs5h9pfowBbPPUqJvorpmRUoZrWuPOj4nQxj5soMTL5HG0Y03asDk0vUMy9N\nGlWD+yz9AtT8UV8YSkZBZ8bIR0QJJQYWwaYTu7b7iow7/r4AdXrWudVSgbl0SF+S\nUvBsROXy6QZeo6wt5V7mpBx1+MaD7XStlmg9UMLJLwKBgQDeVV5U5vAAvxTLeFy+\nO5Aq49QbAadlMI1jMtCJUJK1Wdk8AP5xwdVsAsVb9z/rVhEcVNmDE7nfHxEG7LqB\nDqw/Km/v7ClT5KiQIF1m5kfaBTur+L5bwgeifuy7i/7fmZX1ZK35gTLJguAxuXwT\nR6Hq3X1vuHYd6ISRvUibjr/DGwKBgQC8qAeLgS2XYkI1U7edOPlWB5oqCWPAw7Ab\nrRNbwqZEUJFhXT6GxMQMAe6hgA05I+55CeMiqvp7rV8GY+MotJiSFjRUk9NwOwcM\nzWgK4uWkCOvLz6bj3BA2t4Ue9M7n2abThYJH6WNQ3r8AaWs2XwE0zUO5MGIIepR3\nvZjtuXbqGwKBgAVX2d+CeUwbS32kU95CgjF1rjhD7ujwpMU4iGh0ZkIzeZQGlhbX\nyLBC1MlkBMY8GEctBtkulS32iis3bzgAyUTvWSdT7p5UhXSJQpVhfWKQ86ErZi/A\nVvyhvkC3mZV4FHGETOYNI9JR8d9gDMpN02dYkVYpAbWwS9dQzDjo0lT3AoGAL2WD\np7/HhX3xJlanDb/vnHaCe8cqIZbIWturvmTzwrv/GlgDynYKzv15R2fVaqKlWhFq\n2B3emk3fTsqvml1s617avNj6yPp7dfLxDbMdgI2hN+4ufpaeGDEZJ8LXbJZY/FFR\nfuGaywl7MQ5LGjjaI7riJdeK+ZhaTo76qdbrkjsCgYBZbhEhoFpQ8Rpr3BlRK9V8\nYd9iupXHlumFwtqeIGuq1uhtciuXwY1aFhwsJkm798chpFhcHIiZ1hAVnVly6GXf\nT77a3slBz/E6amaErQVdNll4FIdwkznlq1tYWeXLGxgAyMNqsgCsIgh0bU0Xq9aW\nUUCwme06KHXwBsN0xjrTzQ==\n-----END PRIVATE KEY-----\n",
  "client_email": "firebase-adminsdk-9kier@sep490-g27-spring2024.iam.gserviceaccount.com",
  "client_id": "102275019073898400640",
  "auth_uri": "https://accounts.google.com/o/oauth2/auth",
  "token_uri": "https://oauth2.googleapis.com/token",
  "auth_provider_x509_cert_url": "https://www.googleapis.com/oauth2/v1/certs",
  "client_x509_cert_url": "https://www.googleapis.com/robot/v1/metadata/x509/firebase-adminsdk-9kier%40sep490-g27-spring2024.iam.gserviceaccount.com",
  "universe_domain": "googleapis.com"
}
